…
Clean the data:

Write a function that converts contribution amounts in total, dems, and repubs from character strings to numeric values.

base_url <- "https://www.opensecrets.org/political-action-committees-pacs/foreign-connected-pacs/2022"

tables <- base_url %>%
  read_html() %>%
  html_nodes(css="table") %>% # this will isolate all tables on page
  html_table() # Parse an html table into a dataframe

tables

## [[1]]
## # A tibble: 215 × 5
##    `PAC Name (Affiliate)`              Country of Origin/Pa…¹ Total Dems  Repubs
##    <chr>                               <chr>                  <chr> <chr> <chr> 
##  1 Accenture (Accenture)               Ireland/Accenture plc  $3,0… $0    $3,000
##  2 Acreage Holdings                    Canada/Acreage Holdin… $0    $0    $0    
##  3 Air Liquide America                 France/L'Air Liquide … $17,… $14,… $2,500
##  4 Airbus Group                        Netherlands/Airbus Gr… $193… $82,… $111,…
##  5 Alexion Pharmaceuticals (AstraZene… UK/AstraZeneca PLC     $186… $104… $82,2…
##  6 Alkermes Inc                        Ireland/Alkermes Plc   $84,… $34,… $50,0…
##  7 Allianz of America (Allianz)        Germany/Allianz AG Ho… $31,… $20,… $11,0…
##  8 AMG Vanadium                        Netherlands/AMG Advan… $2,5… $0    $2,525
##  9 Anheuser-Busch (Anheuser-Busch InB… Belgium/Anheuser-Busc… $457… $218… $239,…
## 10 AON Corp (AON plc)                  UK/AON PLC             $98,… $52,… $46,5…
## # ℹ 205 more rows
## # ℹ abbreviated name: ¹​`Country of Origin/Parent Company`
…
Map the scrape_pac() function over urls in a way that will result in a data frame called contributions_all.

Write the data frame to a csv file called contributions-all.csv in the data folder.

base_url <- "https://www.opensecrets.org/political-action-committees-pacs/foreign-connected-pacs/2022"

tables <- base_url %>%
  read_html() %>%
  html_nodes(css="table") %>% # this will isolate all tables on page
  html_table() # Parse an html table into a dataframe

tables

## [[1]]
## # A tibble: 215 × 5
##    `PAC Name (Affiliate)`              Country of Origin/Pa…¹ Total Dems  Repubs
##    <chr>                               <chr>                  <chr> <chr> <chr> 
##  1 Accenture (Accenture)               Ireland/Accenture plc  $3,0… $0    $3,000
##  2 Acreage Holdings                    Canada/Acreage Holdin… $0    $0    $0    
##  3 Air Liquide America                 France/L'Air Liquide … $17,… $14,… $2,500
##  4 Airbus Group                        Netherlands/Airbus Gr… $193… $82,… $111,…
##  5 Alexion Pharmaceuticals (AstraZene… UK/AstraZeneca PLC     $186… $104… $82,2…
##  6 Alkermes Inc                        Ireland/Alkermes Plc   $84,… $34,… $50,0…
##  7 Allianz of America (Allianz)        Germany/Allianz AG Ho… $31,… $20,… $11,0…
##  8 AMG Vanadium                        Netherlands/AMG Advan… $2,5… $0    $2,525
##  9 Anheuser-Busch (Anheuser-Busch InB… Belgium/Anheuser-Busc… $457… $218… $239,…
## 10 AON Corp (AON plc)                  UK/AON PLC             $98,… $52,… $46,5…
## # ℹ 205 more rows
## # ℹ abbreviated name: ¹​`Country of Origin/Parent Company`
…
